Ćwiczenie 2 (tidymodels)
…
── Training information 

Training data contained 5667 data points and no incomplete rows.

Predykcja na danych testowych

Predykcja wartości na podstawie zbioru testowego.

pred_test <- 
  augment(logi_fit, test_data)

pred_test

# A tibble: 1,889 × 6
   .pred_class .pred_Niskie .pred_Wysokie ozone     ws   nox
   <fct>              <dbl>         <dbl> <fct>  <dbl> <int>
 1 Niskie             1.00     0.00000277 Niskie 1.70    422
 2 Niskie             1.00     0.0000164  Niskie 1.79    370
 3 Niskie             1.00     0.000162   Niskie 0.840   293
 4 Niskie             1.00     0.0000829  Niskie 1.70    321
 5 Niskie             1.00     0.000440   Niskie 2.93    283
 6 Niskie             0.992    0.00833    Niskie 3.63    202
 7 Niskie             0.991    0.00942    Niskie 3.70    199
 8 Niskie             0.945    0.0545     Niskie 3.12    140
 9 Niskie             0.993    0.00733    Niskie 4.18    211
10 Niskie             0.868    0.132      Niskie 2.79    108
# ℹ 1,879 more rows
…
