Ćwiczenie 1 (tidymodels)
…
Załadowanie danych następuje z zestawu airquality.

colnames(airquality) <- tolower(colnames(airquality))

air <-
  airquality |>
  as_tibble() |>
  na.omit() |> 
  select(-day) |> 
  mutate(month = factor(month)) 

print(air)

# A tibble: 111 × 5
   ozone solar.r  wind  temp month
   <int>   <int> <dbl> <int> <fct>
 1    41     190   7.4    67 5    
 2    36     118   8      72 5    
 3    12     149  12.6    74 5    
 4    18     313  11.5    62 5    
 5    23     299   8.6    65 5    
 6    19      99  13.8    59 5    
 7     8      19  20.1    61 5    
 8    16     256   9.7    69 5    
 9    11     290   9.2    66 5    
10    14     274  10.9    68 5    
# ℹ 101 more rows
…
